PCB Specification created on                     : Oct  8 15:06:13 2020

Output specification for PCB job                 : level_shifter.brd
Output Generated by                              : gytis

Output files are archived in                     : level_shifter-2020-Oct-8-15-06.zip



STACKUP: PRIMARY
    1: --------------  TOP                    (CONDUCTOR   	Er=1.000, T=0.035)
                                              (Loss=0.000, Func=CONDUCTOR , Mat=COPPER)
        ===========                           (DIELECTRIC  	Er=4.500, T=1.530)
                                              (Loss=0.035, Func=DIELECTRIC, Mat=FR-4  )
    2: --------------  BOTTOM                 (CONDUCTOR   	Er=1.000, T=0.035)
                                              (Loss=0.000, Func=CONDUCTOR , Mat=COPPER)

 Total Thickness: 1.600 millimeters
 Total Thickness without masks: 1.600 millimeters (Notice that no mask layers are defined in Stackup!



Minimum route width on layer:
	TOP        : 0.254000
	BOTTOM     : 0.254000

IPC 356:
      Netlist name                               : level_shifter.ipc

      NOTICE: Always perform gerber to IPC netlist comparison!


NC Drill Data:
      Plated Drill file for layers 1-2           : level_shifter-1-2.drl
      Drill file format specification            : nc_param.txt

Gerber Film:
      Data for top                               : 1_TOP.art
      Data for bottom                            : 2_BOTTOM.art
      Data for NCLEGEND-1-2                      : NCLEGEND-1-2.art
      Data for Board_outline                     : Board_outline.art
      Data for soldermask top                    : Soldermask_top.art
      Data for soldermask bottom                 : Soldermask_bot.art
      Data for pastemask top                     : Solderpaste_top.art
      Data for pastemask bottom                  : Solderpaste_bot.art
      Data for assembly top                      : Assembly_top.art
      Data for assembly bottom                   : Assembly_bot.art
      Data for silkscreen top                    : Silkscreen_top.art
      Data for silkscreen bottom                 : Silkscreen_bot.art
      Data for Masterdrawing                     : Masterdrawing.art
      Data for Cutout                            : Cutout.art
      Artwork file format specification          : art_param.txt

Pick and place data:
      SMD on Top Layer (8 components)            : level_shifter_sm_top.txt
      Throughhole on Top Layer (7 components)    : level_shifter_th_top.txt

Data created with Post Processing Release: 3.54
