(---------------------------------------------------------------------)
(                                                                     )
(    DRILL LEGEND                                                     )
(                                                                     )
(    Drawing          : level_shifter.brd                             )
(    Software Version : 17.4S009                                      )
(    Date/Time        : Thu Oct  8 15:06:18 2020                      )
(                                                                     )
(---------------------------------------------------------------------)


Begin processing of drill legend template file 'C:/Cadence/SPB_17.4/share/pcb/text/nclegend/default-mm.dlt' ...
WARNING(SPMHSK-47): Column type 'HoleSize' does not exist.
WARNING(SPMHSK-47): Column type 'PlateStatus' does not exist.
End of drill legend template file processing.

Begin processing drill holes.
No errors detected in processing holes.
End processing drill holes.
